{
    "main_package": "",
    "getDataOnly": false,
    "checkDataSection": true,
    "tempUploadDir": true,
    "module_directory": "",
    "app_user": "",
    "app_key": "",
    "temp_module_path": "dbscripts",
    "template": {
        "repository": "",
        "version": ""
    },
    "common": {
        "repository": "",
        "path": ""
    },
    "sandbox_common": {
        "repository": "",
        "path": ""
    },
    "container": {
        "name": "",
        "image": "",
        "docker_file": "",
        "compose_file": ""
    },
    "binding_var": [   
        {
            "variable": "<<_none_>>",
            "value": "none"
        }    
    ],
    "modules": [
        {
            "repository": "",
            "path": "",
            "package": "",
            "version": ""
        }
    ]
}